[gd_scene load_steps=3 format=3 uid="uid://dkv4l632sdgea"]

[ext_resource type="Script" path="res://scenes/collision_gaps.gd" id="1_463ec"]

[sub_resource type="CapsuleShape3D" id="CapsuleShape3D_vilya"]

[node name="collision_gaps" type="Node3D"]
script = ExtResource("1_463ec")

[node name="StartArea3D" type="Area3D" parent="."]
transform = Transform3D(1, 0, 0, 0, 1, 0, 0, 0, 1, 0, 0.931205, 0)

[node name="StartCollisionShape3D" type="CollisionShape3D" parent="StartArea3D"]
shape = SubResource("CapsuleShape3D_vilya")

[node name="EndArea3D" type="Area3D" parent="."]
transform = Transform3D(0.789389, 0.582778, 0.192963, -0.480157, 0.781981, -0.397436, -0.38251, 0.22108, 0.897112, 4.03251, 2.90249, 1.88734)

[node name="EndCollisionShape3D" type="CollisionShape3D" parent="EndArea3D"]
transform = Transform3D(1, 0.000237823, -0.000146091, 2.45869e-07, 0.522766, 0.852475, 0.000279248, -0.852476, 0.522766, 2.83026, -1.6358, -6.63788)
shape = SubResource("CapsuleShape3D_vilya")
